{
	"info": {
		"_postman_id": "fc991a2d-e75e-417b-993e-e29a20d1b0c6",
		"name": "Apúntate",
		"schema": "https://schema.getpostman.com/json/collection/v2.1.0/collection.json"
	},
	"item": [
		{
			"name": "GET All Apúntate",
			"request": {
				"method": "GET",
				"header": [],
				"url": {
					"raw": "https://localhost:5001/api/apuntate/5efb4fec42943c38903c789d",
					"protocol": "https",
					"host": [
						"localhost"
					],
					"port": "5001",
					"path": [
						"api",
						"apuntate",
						"5efb4fec42943c38903c789d"
					]
				}
			},
			"response": []
		},
		{
			"name": "Crear Apúntate",
			"request": {
				"method": "POST",
				"header": [
					{
						"key": "Content-Type",
						"value": "application/json",
						"type": "text"
					}
				],
				"body": {
					"mode": "raw",
					"raw": "{\r\n    \"Descripcion\": \"prueba\",\r\n    \"HoraInicio\": \"2020-07-01T18:23:00\",\r\n    \"HoraFin\": \"2020-07-01T19:23:00\",\r\n    \"Titulo\": \"asd\",\r\n    \"NumPlazas\": \"10\",\r\n    \"AlumnosPorGrupo\": \"2\",\r\n    \"AperturaInscripcion\": \"2020-07-01T18:23:00\",\r\n    \"CierreInscripcion\": \"2020-07-01T18:25:00\",\r\n    \"Organizador\": \"alex@um.es\"\r\n}"
				},
				"url": {
					"raw": "https://localhost:5001/api/apuntate",
					"protocol": "https",
					"host": [
						"localhost"
					],
					"port": "5001",
					"path": [
						"api",
						"apuntate"
					]
				}
			},
			"response": []
		},
		{
			"name": "Inscribirse a reunión y a un turno",
			"request": {
				"method": "PUT",
				"header": [
					{
						"key": "Content-Type",
						"value": "application/json",
						"type": "text"
					}
				],
				"body": {
					"mode": "raw",
					"raw": "{\r\n    \"alumnoId\": \"javier@um.es\",\r\n    \"comentario\": \"prueba comentario\"\r\n}"
				},
				"url": {
					"raw": "https://localhost:5001/api/apuntate/5efb4fec42943c38903c789d/turno/0",
					"protocol": "https",
					"host": [
						"localhost"
					],
					"port": "5001",
					"path": [
						"api",
						"apuntate",
						"5efb4fec42943c38903c789d",
						"turno",
						"0"
					]
				}
			},
			"response": []
		},
		{
			"name": "Eliminar inscripción de un turno",
			"request": {
				"method": "DELETE",
				"header": [],
				"url": {
					"raw": "https://localhost:5001/api/apuntate/5efb4fec42943c38903c789d/turno/0?alumnoId=humberto@um.es",
					"protocol": "https",
					"host": [
						"localhost"
					],
					"port": "5001",
					"path": [
						"api",
						"apuntate",
						"5efb4fec42943c38903c789d",
						"turno",
						"0"
					],
					"query": [
						{
							"key": "alumnoId",
							"value": "humberto@um.es"
						}
					]
				}
			},
			"response": []
		},
		{
			"name": "Borrar Apúntate",
			"request": {
				"method": "DELETE",
				"header": [],
				"url": {
					"raw": "https://localhost:5001/api/apuntate/5efb4e8f42943c38903c789c",
					"protocol": "https",
					"host": [
						"localhost"
					],
					"port": "5001",
					"path": [
						"api",
						"apuntate",
						"5efb4e8f42943c38903c789c"
					]
				}
			},
			"response": []
		}
	],
	"protocolProfileBehavior": {}
}